{
  "uid" : "83edc06c07f9ae9e47eb6dd1b683e4e2",
  "name" : "packages",
  "children" : [ {
    "name" : "test_Com",
    "children" : [ {
      "name" : "账号不存在",
      "uid" : "9f070ffd6e80e68d",
      "parentUid" : "9225dd35b701f40149e00dd7147b2921",
      "status" : "passed",
      "time" : {
        "start" : 1603690861224,
        "stop" : 1603690862453,
        "duration" : 1229
      },
      "flaky" : false,
      "newFailed" : false,
      "parameters" : [ ]
    }, {
      "name" : "test_error_pwd",
      "uid" : "72d90dc282b3b840",
      "parentUid" : "9225dd35b701f40149e00dd7147b2921",
      "status" : "passed",
      "time" : {
        "start" : 1603690862455,
        "stop" : 1603690862861,
        "duration" : 406
      },
      "flaky" : false,
      "newFailed" : false,
      "parameters" : [ ]
    }, {
      "name" : "test_success_pwd",
      "uid" : "3da992a36fbffa6c",
      "parentUid" : "9225dd35b701f40149e00dd7147b2921",
      "status" : "passed",
      "time" : {
        "start" : 1603690862862,
        "stop" : 1603690865159,
        "duration" : 2297
      },
      "flaky" : false,
      "newFailed" : false,
      "parameters" : [ ]
    } ],
    "uid" : "9225dd35b701f40149e00dd7147b2921"
  } ]
}